{
    "env": {
        "browser": true,
        "commonjs": true
    },
    "extends": "eslint:recommended",
    "rules": {
        "accessor-pairs": "error",
        "array-bracket-spacing": "error",
        "array-callback-return": "error",
        "arrow-body-style": "error",
        "arrow-parens": "error",
        "arrow-spacing": "error",
        "block-scoped-var": "off",
        "block-spacing": "error",
        "brace-style": [
            "error",
            "1tbs"
        ],
        "callback-return": "off",
        "camelcase": "off",
        "capitalized-comments": "off",
        "class-methods-use-this": "error",
        "comma-dangle": "error",
        "comma-spacing": [
            "error",
            {
                "after": true,
                "before": false
            }
        ],
        "comma-style": [
            "error",
            "last"
        ],
        "complexity": "error",
        "computed-property-spacing": [
            "error",
            "never"
        ],
        "consistent-return": "off",
        "consistent-this": [
		"error",
		"that"
	],
        "curly": "error",
        "default-case": "error",
        "dot-location": [
            "error",
            "property"
        ],
        "dot-notation": "error",
        "eol-last": "error",
        "eqeqeq": "error",
        "func-call-spacing": "error",
        "func-name-matching": "error",
        "func-names": [
            "error",
            "never"
        ],
        "func-style": "off",
        "generator-star-spacing": "error",
        "global-require": "error",
        "guard-for-in": "error",
        "handle-callback-err": "error",
        "id-blacklist": "error",
        "id-length": "off",
        "id-match": "error",
        "indent": [
		"error",
		4, 
		{ "SwitchCase": 1 }
	],
        "init-declarations": "off",
        "jsx-quotes": "error",
        "key-spacing": "error",
        "keyword-spacing": [
            "error",
            {
                "after": true,
                "before": true
            }
        ],
        "line-comment-position": "off",
        "linebreak-style": [
            "error",
            "unix"
        ],
        "lines-around-comment": [
		"error",
		{ 
			"beforeBlockComment": true, 
			"allowBlockStart": true 
		}
	],
        "lines-around-directive": [
		"error",
		"always"
	],
        "max-depth": "off",
        "max-len": [
		"error", 
		120, 
		{ "comments": 120 }
	],
        "max-lines": "off",
        "max-nested-callbacks": "error",
        "max-params": "error",
        "max-statements": "off",
        "max-statements-per-line": "error",
        "multiline-ternary": [ 
		"error", 
		"never"
	],
        "new-parens": "error",
        "newline-after-var": "off",
        "newline-before-return": "off",
        "newline-per-chained-call": [
		"error",
		{ "ignoreChainWithDepth": 2 }
	],
        "no-alert": "error",
        "no-array-constructor": "error",
        "no-await-in-loop": "error",
        "no-bitwise": "error",
        "no-caller": "error",
        "no-catch-shadow": "error",
        "no-compare-neg-zero": "error",
        "no-confusing-arrow": "error",
        "no-continue": "error",
        "no-div-regex": "error",
        "no-duplicate-imports": "error",
        "no-else-return": "error",
        "no-empty": [
            "error",
            {
                "allowEmptyCatch": true
            }
        ],
        "no-empty-function": "off",
        "no-eq-null": "error",
        "no-eval": "error",
        "no-extend-native": [
		"error",
		{ "exceptions": ["Array"] }
	],
        "no-extra-bind": "error",
        "no-extra-label": "error",
        "no-extra-parens": "off",
        "no-floating-decimal": "error",
        "no-implicit-coercion": [
		"error",
		{ 
			"boolean": false ,
			"number": false ,
			"string": false 
		}  
	],
        "no-implicit-globals": "error",
        "no-implied-eval": "error",
        "no-inline-comments": "off",
        "no-inner-declarations": [
            "error",
            "functions"
        ],
        "no-invalid-this": "error",
        "no-iterator": "error",
        "no-label-var": "error",
        "no-labels": "error",
        "no-lone-blocks": "error",
        "no-lonely-if": "off",
        "no-loop-func": "error",
        "no-magic-numbers": "off",
        "no-mixed-operators": "error",
        "no-mixed-requires": "error",
        "no-multi-assign": "error",
        "no-multi-spaces": "error",
        "no-multi-str": "error",
        "no-multiple-empty-lines": "error",
        "no-native-reassign": "error",
        "no-negated-condition": "off",
        "no-negated-in-lhs": "error",
        "no-nested-ternary": "error",
        "no-new": "error",
        "no-new-func": "error",
        "no-new-object": "error",
        "no-new-require": "error",
        "no-new-wrappers": "error",
        "no-octal-escape": "error",
        "no-param-reassign": "off",
        "no-path-concat": "error",
        "no-plusplus": [
		"error",
		{ "allowForLoopAfterthoughts": true }
	],
        "no-process-env": "error",
        "no-process-exit": "error",
        "no-proto": "error",
        "no-prototype-builtins": "error",
        "no-restricted-globals": "error",
        "no-restricted-imports": "error",
        "no-restricted-modules": "error",
        "no-restricted-properties": "error",
        "no-restricted-syntax": "error",
        "no-return-assign": "error",
        "no-return-await": "error",
        "no-script-url": "error",
        "no-self-compare": "error",
        "no-sequences": "error",
        "no-shadow": "off",
        "no-shadow-restricted-names": "error",
        "no-spaced-func": "error",
        "no-sync": "error",
        "no-tabs": "error",
        "no-template-curly-in-string": "off",
        "no-ternary": "off",
        "no-throw-literal": "error",
        "no-trailing-spaces": "error",
        "no-undef-init": "error",
        "no-undefined": "off",
        "no-underscore-dangle": [
		"error",
		{ 
			"allow": ["_id"] 
		}
	],
        "no-unmodified-loop-condition": "error",
        "no-unneeded-ternary": "error",
        "no-unused-expressions": [
		"error",
		{ 
			"allowShortCircuit": false, 
			"allowTernary": true 
		}
	],
        "no-use-before-define": "off",
        "no-useless-call": "error",
        "no-useless-computed-key": "error",
        "no-useless-concat": "off",
        "no-useless-constructor": "error",
        "no-useless-escape": "error",
        "no-useless-rename": "error",
        "no-useless-return": "error",
        "no-var": "off",
        "no-void": "error",
        "no-warning-comments": "error",
        "no-whitespace-before-property": "error",
        "no-with": "error",
        "nonblock-statement-body-position": "error",
        "object-curly-newline": [ 
		"error",
		{ 
			"multiline": true 
		}
	],
        "object-curly-spacing": "error",
        "object-property-newline": "error",
        "object-shorthand": "off",
        "one-var": "off",
        "one-var-declaration-per-line": "error",
        "operator-assignment": [
            "error",
            "always"
        ],
        "operator-linebreak": [
            "error",
            "before"
        ],
        "padded-blocks": "off",
        "prefer-arrow-callback": "off",
        "prefer-const": "error",
        "prefer-numeric-literals": "error",
        "prefer-promise-reject-errors": "error",
        "prefer-reflect": "off",
        "prefer-rest-params": "off",
        "prefer-spread": "error",
        "prefer-template": "off",
        "quote-props": "off",
        "quotes": [
            "error",
            "single"
        ],
        "radix": [
		"error",
		"as-needed"
	],
        "require-await": "error",
        "require-jsdoc": "off",
        "rest-spread-spacing": "error",
        "semi": "error",
        "semi-spacing": "error",
        "sort-imports": "error",
        "sort-keys": "off",
        "sort-vars": "error",
        "space-before-blocks": "error",
        "space-before-function-paren": [
		"error",
		{
			"anonymous": "never", 
			"named": "never", 
			"asyncArrow": "always"
		}
	],
        "space-in-parens": [
            "error",
            "never"
        ],
        "space-infix-ops": "error",
        "space-unary-ops": "error",
        "spaced-comment": [
            "error",
            "always"
        ],
        "strict": [
            "error",
            "function"
        ],
        "symbol-description": "error",
        "template-curly-spacing": "error",
        "template-tag-spacing": "error",
        "unicode-bom": [
            "error",
            "never"
        ],
        "valid-jsdoc": "error",
        "vars-on-top": "off",
        "wrap-iife": "error",
        "wrap-regex": "error",
        "yield-star-spacing": "error",
        "yoda": [
            "error",
            "always"
        ]
    }
}